^C:\USERS\משתמש\SOURCE\REPOS\ITAY C2 FINAL PROJECT\DEBUG\CHECKS.OBJ|C:\USERS\משתמש\SOURCE\REPOS\ITAY C2 FINAL PROJECT\DEBUG\LINKEDLIST.OBJ|C:\USERS\משתמש\SOURCE\REPOS\ITAY C2 FINAL PROJECT\DEBUG\MAIN.OBJ|C:\USERS\משתמש\SOURCE\REPOS\ITAY C2 FINAL PROJECT\DEBUG\VIEW.OBJ
C:\OPENCV\BUILD\X86\VC12\LIB\OPENCV_WORLD300D.LIB
C:\OPENCV\BUILD\X86\VC12\LIB\OPENCV_TS300D.LIB
C:\PROGRAM FILES (X86)\WINDOWS KITS\10\LIB\10.0.17134.0\UM\X86\KERNEL32.LIB
C:\PROGRAM FILES (X86)\WINDOWS KITS\10\LIB\10.0.17134.0\UM\X86\USER32.LIB
C:\PROGRAM FILES (X86)\WINDOWS KITS\10\LIB\10.0.17134.0\UM\X86\GDI32.LIB
C:\PROGRAM FILES (X86)\WINDOWS KITS\10\LIB\10.0.17134.0\UM\X86\WINSPOOL.LIB
C:\PROGRAM FILES (X86)\WINDOWS KITS\10\LIB\10.0.17134.0\UM\X86\COMDLG32.LIB
C:\PROGRAM FILES (X86)\WINDOWS KITS\10\LIB\10.0.17134.0\UM\X86\ADVAPI32.LIB
C:\PROGRAM FILES (X86)\WINDOWS KITS\10\LIB\10.0.17134.0\UM\X86\SHELL32.LIB
C:\PROGRAM FILES (X86)\WINDOWS KITS\10\LIB\10.0.17134.0\UM\X86\OLE32.LIB
C:\PROGRAM FILES (X86)\WINDOWS KITS\10\LIB\10.0.17134.0\UM\X86\OLEAUT32.LIB
C:\PROGRAM FILES (X86)\WINDOWS KITS\10\LIB\10.0.17134.0\UM\X86\UUID.LIB
C:\PROGRAM FILES (X86)\WINDOWS KITS\10\LIB\10.0.17134.0\UM\X86\ODBC32.LIB
C:\PROGRAM FILES (X86)\WINDOWS KITS\10\LIB\10.0.17134.0\UM\X86\ODBCCP32.LIB
C:\USERS\משתמש\SOURCE\REPOS\ITAY C2 FINAL PROJECT\DEBUG\CHECKS.OBJ
C:\USERS\משתמש\SOURCE\REPOS\ITAY C2 FINAL PROJECT\DEBUG\LINKEDLIST.OBJ
C:\USERS\משתמש\SOURCE\REPOS\ITAY C2 FINAL PROJECT\DEBUG\MAIN.OBJ
C:\USERS\משתמש\SOURCE\REPOS\ITAY C2 FINAL PROJECT\DEBUG\VIEW.OBJ
C:\WINDOWS\SYSTEM32\TZRES.DLL
C:\WINDOWS\GLOBALIZATION\SORTING\SORTDEFAULT.NLS
C:\PROGRAM FILES (X86)\MICROSOFT VISUAL STUDIO\2017\COMMUNITY\VC\TOOLS\MSVC\14.15.26726\LIB\X86\MSVCRTD.LIB
C:\PROGRAM FILES (X86)\MICROSOFT VISUAL STUDIO\2017\COMMUNITY\VC\TOOLS\MSVC\14.15.26726\LIB\X86\OLDNAMES.LIB
C:\PROGRAM FILES (X86)\MICROSOFT VISUAL STUDIO\2017\COMMUNITY\VC\TOOLS\MSVC\14.15.26726\LIB\X86\VCRUNTIMED.LIB
C:\PROGRAM FILES (X86)\WINDOWS KITS\10\LIB\10.0.17134.0\UCRT\X86\UCRTD.LIB
C:\PROGRAM FILES (X86)\MICROSOFT VISUAL STUDIO\2017\COMMUNITY\VC\TOOLS\MSVC\14.15.26726\BIN\HOSTX86\X86\VCTIP.EXE
